<svg xmlns="http://www.w3.org/2000/svg">
	<symbol id="add-r" viewBox="0 0 24 24">
		<path
			d="M12 6C12.5523 6 13 6.44772 13 7V11H17C17.5523 11 18 11.4477 18 12C18 12.5523 17.5523 13 17 13H13V17C13 17.5523 12.5523 18 12 18C11.4477 18 11 17.5523 11 17V13H7C6.44772 13 6 12.5523 6 12C6 11.4477 6.44772 11 7 11H11V7C11 6.44772 11.4477 6 12 6Z"
			 />
		<path fill-rule="evenodd" clip-rule="evenodd"
			d="M5 22C3.34315 22 2 20.6569 2 19V5C2 3.34315 3.34315 2 5 2H19C20.6569 2 22 3.34315 22 5V19C22 20.6569 20.6569 22 19 22H5ZM4 19C4 19.5523 4.44772 20 5 20H19C19.5523 20 20 19.5523 20 19V5C20 4.44772 19.5523 4 19 4H5C4.44772 4 4 4.44772 4 5V19Z"
			 />
	</symbol>
	<symbol id="clipboard" viewBox="0 0 24 24">
		<path
			d="M8 11C7.44772 11 7 11.4477 7 12C7 12.5523 7.44772 13 8 13H15.9595C16.5118 13 16.9595 12.5523 16.9595 12C16.9595 11.4477 16.5118 11 15.9595 11H8Z"
			 />
		<path
			d="M8.04053 15.0665C7.48824 15.0665 7.04053 15.5142 7.04053 16.0665C7.04053 16.6188 7.48824 17.0665 8.04053 17.0665H16C16.5523 17.0665 17 16.6188 17 16.0665C17 15.5142 16.5523 15.0665 16 15.0665H8.04053Z"
			 />
		<path fill-rule="evenodd" clip-rule="evenodd"
			d="M5 3C3.89543 3 3 3.89543 3 5V19C3 20.1046 3.89543 21 5 21H19C20.1046 21 21 20.1046 21 19V5C21 3.89543 20.1046 3 19 3H5ZM7 5H5L5 19H19V5H17V6C17 7.65685 15.6569 9 14 9H10C8.34315 9 7 7.65685 7 6V5ZM9 5V6C9 6.55228 9.44772 7 10 7H14C14.5523 7 15 6.55228 15 6V5H9Z"
			 />
	</symbol>
	<symbol id="code-slash" viewBox="0 0 24 24">
		<path d="M13.325 3.05011L8.66741 20.4323L10.5993 20.9499L15.2568 3.56775L13.325 3.05011Z" />
		<path
			d="M7.61197 18.3608L8.97136 16.9124L8.97086 16.8933L3.87657 12.1121L8.66699 7.00798L7.20868 5.63928L1.04956 12.2017L7.61197 18.3608Z"
			 />
		<path
			d="M16.388 18.3608L15.0286 16.9124L15.0291 16.8933L20.1234 12.1121L15.333 7.00798L16.7913 5.63928L22.9504 12.2017L16.388 18.3608Z"
			 />
	</symbol>
	<symbol id="export" viewBox="0 0 24 24">
		<path
			d="M16.9498 5.96781L15.5356 7.38203L13 4.84646V17.0421H11V4.84653L8.46451 7.38203L7.05029 5.96781L12 1.01807L16.9498 5.96781Z"
			 />
		<path d="M5 20.9819V10.9819H9V8.98193H3V22.9819H21V8.98193H15V10.9819H19V20.9819H5Z" />
	</symbol>
	<symbol id="file" viewBox="0 0 24 24">
		<path fill-rule="evenodd" clip-rule="evenodd"
			d="M3 5C3 3.34315 4.34315 2 6 2H14C17.866 2 21 5.13401 21 9V19C21 20.6569 19.6569 22 18 22H6C4.34315 22 3 20.6569 3 19V5ZM13 4H6C5.44772 4 5 4.44772 5 5V19C5 19.5523 5.44772 20 6 20H18C18.5523 20 19 19.5523 19 19V9H13V4ZM18.584 7C17.9413 5.52906 16.6113 4.4271 15 4.10002V7H18.584Z"
			 />
	</symbol>
	<symbol id="git-fork" viewBox="0 0 24 24">
		<path
			d="M7 5C7 3.89543 7.89543 3 9 3C10.1046 3 11 3.89543 11 5C11 5.74028 10.5978 6.38663 10 6.73244V14.0396H11.7915C12.8961 14.0396 13.7915 13.1441 13.7915 12.0396V10.7838C13.1823 10.4411 12.7708 9.78837 12.7708 9.03955C12.7708 7.93498 13.6662 7.03955 14.7708 7.03955C15.8753 7.03955 16.7708 7.93498 16.7708 9.03955C16.7708 9.77123 16.3778 10.4111 15.7915 10.7598V12.0396C15.7915 14.2487 14.0006 16.0396 11.7915 16.0396H10V17.2676C10.5978 17.6134 11 18.2597 11 19C11 20.1046 10.1046 21 9 21C7.89543 21 7 20.1046 7 19C7 18.2597 7.4022 17.6134 8 17.2676V6.73244C7.4022 6.38663 7 5.74028 7 5Z"
			 />
	</symbol>
	<symbol id="play-list-add" viewBox="0 0 24 24">
		<path d="M2 5H14V7H2V5Z" />
		<path d="M2 9H14V11H2V9Z" />
		<path d="M10 13H2V15H10V13Z" />
		<path d="M16 9H18V13H22V15H18V19H16V15H12V13H16V9Z" />
	</symbol>
	<symbol id="play-list-remove" viewBox="0 0 24 24">
		<path d="M15.9644 4.63379H3.96442V6.63379H15.9644V4.63379Z" />
		<path d="M15.9644 8.63379H3.96442V10.6338H15.9644V8.63379Z" />
		<path d="M3.96442 12.6338H11.9644V14.6338H3.96442V12.6338Z" />
		<path
			d="M12.9645 13.7093L14.3787 12.295L16.5 14.4163L18.6213 12.2951L20.0355 13.7093L17.9142 15.8305L20.0356 17.9519L18.6214 19.3661L16.5 17.2447L14.3786 19.3661L12.9644 17.9519L15.0858 15.8305L12.9645 13.7093Z"
			 />
	</symbol>
	<symbol id="remove-r" viewBox="0 0 24 24">
		<path
			d="M8 11C7.44772 11 7 11.4477 7 12C7 12.5523 7.44772 13 8 13H16C16.5523 13 17 12.5523 17 12C17 11.4477 16.5523 11 16 11H8Z"
			 />
		<path fill-rule="evenodd" clip-rule="evenodd"
			d="M1 5C1 2.79086 2.79086 1 5 1H19C21.2091 1 23 2.79086 23 5V19C23 21.2091 21.2091 23 19 23H5C2.79086 23 1 21.2091 1 19V5ZM5 3H19C20.1046 3 21 3.89543 21 5V19C21 20.1046 20.1046 21 19 21H5C3.89543 21 3 20.1046 3 19V5C3 3.89543 3.89543 3 5 3Z"
			 />
	</symbol>
	<symbol id="software-download" viewBox="0 0 24 24">
		<path
			d="M11 5C11 4.44772 11.4477 4 12 4C12.5523 4 13 4.44772 13 5V12.1578L16.2428 8.91501L17.657 10.3292L12.0001 15.9861L6.34326 10.3292L7.75748 8.91501L11 12.1575V5Z"
			 />
		<path d="M4 14H6V18H18V14H20V18C20 19.1046 19.1046 20 18 20H6C4.89543 20 4 19.1046 4 18V14Z"
			 />
	</symbol>
	<symbol id="software-upload" viewBox="0 0 24 24">
		<path
			d="M11 14.9861C11 15.5384 11.4477 15.9861 12 15.9861C12.5523 15.9861 13 15.5384 13 14.9861V7.82831L16.2428 11.0711L17.657 9.65685L12.0001 4L6.34326 9.65685L7.75748 11.0711L11 7.82854V14.9861Z"
			 />
		<path d="M4 14H6V18H18V14H20V18C20 19.1046 19.1046 20 18 20H6C4.89543 20 4 19.1046 4 18V14Z"
			 />
	</symbol>
	<symbol id="trash" viewBox="0 0 24 24">
		<path fill-rule="evenodd" clip-rule="evenodd"
			d="M17 5V4C17 2.89543 16.1046 2 15 2H9C7.89543 2 7 2.89543 7 4V5H4C3.44772 5 3 5.44772 3 6C3 6.55228 3.44772 7 4 7H5V18C5 19.6569 6.34315 21 8 21H16C17.6569 21 19 19.6569 19 18V7H20C20.5523 7 21 6.55228 21 6C21 5.44772 20.5523 5 20 5H17ZM15 4H9V5H15V4ZM17 7H7V18C7 18.5523 7.44772 19 8 19H16C16.5523 19 17 18.5523 17 18V7Z"
			 />
		<path d="M9 9H11V17H9V9Z" />
		<path d="M13 9H15V17H13V9Z" />
	</symbol>
</svg>